lab05-jose-lucar.Rmd
…
select() allows you to select columns by name*

player_height<- select(dat, player,height)
player_height

## # A tibble: 477 x 2
##               player height
##                <chr>  <int>
##  1        Al Horford     82
##  2      Amir Johnson     81
##  3     Avery Bradley     74
##  4 Demetrius Jackson     73
##  5      Gerald Green     79
##  6     Isaiah Thomas     69
##  7       Jae Crowder     78
##  8       James Young     78
##  9      Jaylen Brown     79
## 10     Jonas Jerebko     82
## # ... with 467 more rows
…
find how to select the name, age, and team, of players with more than 10 years of experience, making 10 million dollars or less.

select(filter(dat, salary <= 10000000 & experience > 10), player, age, team)

## # A tibble: 36 x 3
##               player   age  team
##                <chr> <int> <chr>
##  1      Andrew Bogut    32   CLE
##  2     Dahntay Jones    36   CLE
##  3    Deron Williams    32   CLE
##  4       James Jones    36   CLE
##  5       Kyle Korver    35   CLE
##  6 Richard Jefferson    36   CLE
##  7     Jose Calderon    35   ATL
##  8    Kris Humphries    31   ATL
##  9     Mike Dunleavy    36   ATL
## 10       Jason Terry    39   MIL
## # ... with 26 more rows
…
slice(select(arrange(dat, desc(salary)),  player, team , salary), 1:5)

## # A tibble: 5 x 3
##          player  team   salary
##           <chr> <chr>    <dbl>
## 1  LeBron James   CLE 30963450
## 2    Al Horford   BOS 26540100
## 3 DeMar DeRozan   TOR 26540100
## 4  Kevin Durant   GSW 26540100
## 5  James Harden   HOU 26540100

dat

## # A tibble: 477 x 15
##               player  team position height weight   age experience
##                <chr> <chr>    <chr>  <int>  <int> <int>      <int>
##  1        Al Horford   BOS        C     82    245    30          9
##  2      Amir Johnson   BOS       PF     81    240    29         11
##  3     Avery Bradley   BOS       SG     74    180    26          6
##  4 Demetrius Jackson   BOS       PG     73    201    22          0
##  5      Gerald Green   BOS       SF     79    205    31          9
##  6     Isaiah Thomas   BOS       PG     69    185    27          5
##  7       Jae Crowder   BOS       SF     78    235    26          4
##  8       James Young   BOS       SG     78    215    21          2
##  9      Jaylen Brown   BOS       SF     79    225    20          0
## 10     Jonas Jerebko   BOS       PF     82    231    29          6
## # ... with 467 more rows, and 8 more variables: college <chr>,
## #   salary <dbl>, games <int>, minutes <int>, points <int>, points3 <int>,
## #   points2 <int>, points1 <int>
…
dat

## # A tibble: 477 x 15
##               player  team position height weight   age experience
##                <chr> <chr>    <chr>  <int>  <int> <int>      <int>
##  1        Al Horford   BOS        C     82    245    30          9
##  2      Amir Johnson   BOS       PF     81    240    29         11
##  3     Avery Bradley   BOS       SG     74    180    26          6
##  4 Demetrius Jackson   BOS       PG     73    201    22          0
##  5      Gerald Green   BOS       SF     79    205    31          9
##  6     Isaiah Thomas   BOS       PG     69    185    27          5
##  7       Jae Crowder   BOS       SF     78    235    26          4
##  8       James Young   BOS       SG     78    215    21          2
##  9      Jaylen Brown   BOS       SF     79    225    20          0
## 10     Jonas Jerebko   BOS       PF     82    231    29          6
## # ... with 467 more rows, and 8 more variables: college <chr>,
## #   salary <dbl>, games <int>, minutes <int>, points <int>, points3 <int>,
## #   points2 <int>, points1 <int>
…
use summarise() to get the standard deviation of points3

summarise(dat, std_points3 = sd(points3))

## # A tibble: 1 x 1
##   std_points3
##         <dbl>
## 1    55.11807

use summarise() and group_by() to display the median of three-points, by team.

summarise(group_by(dat, team), three_points = median(points3))

## # A tibble: 30 x 2
##     team three_points
##    <chr>        <dbl>
##  1   ATL         32.0
##  2   BOS         46.0
##  3   BRK         36.0
##  4   CHI         28.5
##  5   CHO         13.0
##  6   CLE         26.5
##  7   DAL         18.0
##  8   DEN         46.0
##  9   DET         28.0
## 10   GSW         10.5
## # ... with 20 more rows
…
